<svg width="1362" height="1000" viewBox="0 0 1362 1000" fill="none" xmlns="http://www.w3.org/2000/svg">
<path d="M71.6476 23.5838C72.4287 24.3649 72.4287 25.6312 71.6476 26.4123C70.8666 27.1933 69.6002 27.1933 68.8192 26.4123C68.0381 25.6312 68.0381 24.3649 68.8192 23.5838C69.6002 22.8028 70.8666 22.8028 71.6476 23.5838Z" fill="#CCCFD7"/>
<path d="M139.53 -44.299C140.311 -43.5179 140.311 -42.2516 139.53 -41.4706C138.749 -40.6895 137.483 -40.6895 136.702 -41.4706C135.92 -42.2516 135.92 -43.5179 136.702 -44.299C137.483 -45.08 138.749 -45.08 139.53 -44.299Z" fill="#CCCFD7"/>
<path d="M3.76578 227.23C4.54682 228.011 4.54682 229.278 3.76578 230.059C2.98473 230.84 1.7184 230.84 0.937349 230.059C0.1563 229.278 0.1563 228.011 0.937349 227.23C1.7184 226.449 2.98473 226.449 3.76578 227.23Z" fill="#CCCFD7"/>
<path d="M71.6476 159.348C72.4287 160.13 72.4287 161.396 71.6476 162.177C70.8666 162.958 69.6002 162.958 68.8192 162.177C68.0381 161.396 68.0381 160.13 68.8192 159.348C69.6002 158.567 70.8666 158.567 71.6476 159.348Z" fill="#CCCFD7"/>
<path d="M139.53 91.4657C140.311 92.2467 140.311 93.513 139.53 94.2941C138.749 95.0751 137.483 95.0751 136.702 94.2941C135.92 93.513 135.92 92.2467 136.702 91.4657C137.483 90.6846 138.749 90.6846 139.53 91.4657Z" fill="#CCCFD7"/>
<path d="M207.412 23.5838C208.193 24.3649 208.193 25.6312 207.412 26.4123C206.631 27.1933 205.365 27.1933 204.584 26.4123C203.803 25.6312 203.803 24.3649 204.584 23.5838C205.365 22.8028 206.631 22.8028 207.412 23.5838Z" fill="#CCCFD7"/>
<path d="M275.295 -44.299C276.076 -43.5179 276.076 -42.2516 275.295 -41.4706C274.514 -40.6895 273.247 -40.6895 272.466 -41.4706C271.685 -42.2516 271.685 -43.5179 272.466 -44.299C273.247 -45.08 274.514 -45.08 275.295 -44.299Z" fill="#CCCFD7"/>
<path d="M343.177 -112.181C343.958 -111.4 343.958 -110.133 343.177 -109.352C342.396 -108.571 341.13 -108.571 340.348 -109.352C339.567 -110.133 339.567 -111.4 340.348 -112.181C341.13 -112.962 342.396 -112.962 343.177 -112.181Z" fill="#CCCFD7"/>
<path d="M3.76578 362.995C4.54682 363.776 4.54682 365.042 3.76578 365.823C2.98473 366.604 1.7184 366.604 0.937349 365.823C0.1563 365.042 0.1563 363.776 0.937349 362.995C1.7184 362.214 2.98473 362.214 3.76578 362.995Z" fill="#CCCFD7"/>
<path d="M71.6476 295.113C72.4287 295.894 72.4287 297.161 71.6476 297.942C70.8666 298.723 69.6002 298.723 68.8192 297.942C68.0381 297.161 68.0381 295.894 68.8192 295.113C69.6002 294.332 70.8666 294.332 71.6476 295.113Z" fill="#CCCFD7"/>
<path d="M139.53 227.23C140.311 228.011 140.311 229.278 139.53 230.059C138.749 230.84 137.483 230.84 136.702 230.059C135.92 229.278 135.92 228.011 136.702 227.23C137.483 226.449 138.749 226.449 139.53 227.23Z" fill="#CCCFD7"/>
<path d="M207.412 159.348C208.193 160.13 208.193 161.396 207.412 162.177C206.631 162.958 205.365 162.958 204.584 162.177C203.803 161.396 203.803 160.13 204.584 159.348C205.365 158.567 206.631 158.567 207.412 159.348Z" fill="#CCCFD7"/>
<path d="M275.295 91.4657C276.076 92.2467 276.076 93.513 275.295 94.2941C274.514 95.0751 273.247 95.0751 272.466 94.2941C271.685 93.513 271.685 92.2467 272.466 91.4657C273.247 90.6846 274.514 90.6846 275.295 91.4657Z" fill="#CCCFD7"/>
<path d="M343.177 23.5838C343.958 24.3649 343.958 25.6312 343.177 26.4123C342.396 27.1933 341.13 27.1933 340.348 26.4123C339.567 25.6312 339.567 24.3649 340.348 23.5838C341.13 22.8028 342.396 22.8028 343.177 23.5838Z" fill="#CCCFD7"/>
<path d="M411.059 -44.299C411.84 -43.5179 411.84 -42.2516 411.059 -41.4706C410.278 -40.6895 409.012 -40.6895 408.231 -41.4706C407.45 -42.2516 407.45 -43.5179 408.231 -44.299C409.012 -45.08 410.278 -45.08 411.059 -44.299Z" fill="#CCCFD7"/>
<path d="M478.941 -112.181C479.722 -111.4 479.722 -110.133 478.941 -109.352C478.16 -108.571 476.894 -108.571 476.113 -109.352C475.332 -110.133 475.332 -111.4 476.113 -112.181C476.894 -112.962 478.16 -112.962 478.941 -112.181Z" fill="#CCCFD7"/>
<path d="M71.6476 430.877C72.4287 431.658 72.4287 432.924 71.6476 433.705C70.8666 434.486 69.6002 434.486 68.8192 433.705C68.0381 432.924 68.0381 431.658 68.8192 430.877C69.6002 430.096 70.8666 430.096 71.6476 430.877Z" fill="#CCCFD7"/>
<path d="M139.53 362.995C140.311 363.776 140.311 365.042 139.53 365.823C138.749 366.604 137.483 366.604 136.702 365.823C135.92 365.042 135.92 363.776 136.702 362.995C137.483 362.214 138.749 362.214 139.53 362.995Z" fill="#CCCFD7"/>
<path d="M207.412 295.113C208.193 295.894 208.193 297.161 207.412 297.942C206.631 298.723 205.365 298.723 204.584 297.942C203.803 297.161 203.803 295.894 204.584 295.113C205.365 294.332 206.631 294.332 207.412 295.113Z" fill="#CCCFD7"/>
<path d="M275.295 227.23C276.076 228.011 276.076 229.278 275.295 230.059C274.514 230.84 273.247 230.84 272.466 230.059C271.685 229.278 271.685 228.011 272.466 227.23C273.247 226.449 274.514 226.449 275.295 227.23Z" fill="#CCCFD7"/>
<path d="M343.177 159.348C343.958 160.13 343.958 161.396 343.177 162.177C342.396 162.958 341.13 162.958 340.348 162.177C339.567 161.396 339.567 160.13 340.348 159.348C341.13 158.567 342.396 158.567 343.177 159.348Z" fill="#CCCFD7"/>
<path d="M411.059 91.4657C411.84 92.2467 411.84 93.513 411.059 94.2941C410.278 95.0751 409.012 95.0751 408.231 94.2941C407.45 93.513 407.45 92.2467 408.231 91.4657C409.012 90.6846 410.278 90.6846 411.059 91.4657Z" fill="#CCCFD7"/>
<path d="M478.941 23.5838C479.722 24.3649 479.722 25.6312 478.941 26.4123C478.16 27.1933 476.894 27.1933 476.113 26.4123C475.332 25.6312 475.332 24.3649 476.113 23.5838C476.894 22.8028 478.16 22.8028 478.941 23.5838Z" fill="#CCCFD7"/>
<path d="M546.824 -44.299C547.605 -43.5179 547.605 -42.2516 546.824 -41.4706C546.043 -40.6895 544.776 -40.6895 543.995 -41.4706C543.214 -42.2516 543.214 -43.5179 543.995 -44.299C544.776 -45.08 546.043 -45.08 546.824 -44.299Z" fill="#CCCFD7"/>
<path d="M207.412 430.877C208.193 431.658 208.193 432.924 207.412 433.705C206.631 434.486 205.365 434.486 204.584 433.705C203.803 432.924 203.803 431.658 204.584 430.877C205.365 430.096 206.631 430.096 207.412 430.877Z" fill="#CCCFD7"/>
<path d="M275.295 362.995C276.076 363.776 276.076 365.042 275.295 365.823C274.514 366.604 273.247 366.604 272.466 365.823C271.685 365.042 271.685 363.776 272.466 362.995C273.247 362.214 274.514 362.214 275.295 362.995Z" fill="#CCCFD7"/>
<path d="M343.177 295.113C343.958 295.894 343.958 297.161 343.177 297.942C342.396 298.723 341.13 298.723 340.348 297.942C339.567 297.161 339.567 295.894 340.348 295.113C341.13 294.332 342.396 294.332 343.177 295.113Z" fill="#CCCFD7"/>
<path d="M411.059 227.23C411.84 228.011 411.84 229.278 411.059 230.059C410.278 230.84 409.012 230.84 408.231 230.059C407.45 229.278 407.45 228.011 408.231 227.23C409.012 226.449 410.278 226.449 411.059 227.23Z" fill="#CCCFD7"/>
<path d="M478.941 159.348C479.722 160.13 479.722 161.396 478.941 162.177C478.16 162.958 476.894 162.958 476.113 162.177C475.332 161.396 475.332 160.13 476.113 159.348C476.894 158.567 478.16 158.567 478.941 159.348Z" fill="#CCCFD7"/>
<path d="M546.824 91.4657C547.605 92.2467 547.605 93.513 546.824 94.2941C546.043 95.0751 544.776 95.0751 543.995 94.2941C543.214 93.513 543.214 92.2467 543.995 91.4657C544.776 90.6846 546.043 90.6846 546.824 91.4657Z" fill="#CCCFD7"/>
<path d="M614.706 23.5838C615.487 24.3649 615.487 25.6312 614.706 26.4123C613.925 27.1933 612.658 27.1933 611.877 26.4123C611.096 25.6312 611.096 24.3649 611.877 23.5838C612.658 22.8028 613.925 22.8028 614.706 23.5838Z" fill="#CCCFD7"/>
<path d="M682.588 -44.299C683.369 -43.5179 683.369 -42.2516 682.588 -41.4706C681.807 -40.6895 680.541 -40.6895 679.76 -41.4706C678.979 -42.2516 678.979 -43.5179 679.76 -44.299C680.541 -45.08 681.807 -45.08 682.588 -44.299Z" fill="#CCCFD7"/>
<path d="M750.47 -112.181C751.251 -111.4 751.251 -110.133 750.47 -109.352C749.689 -108.571 748.423 -108.571 747.642 -109.352C746.861 -110.133 746.861 -111.4 747.642 -112.181C748.423 -112.962 749.689 -112.962 750.47 -112.181Z" fill="#CCCFD7"/>
<path d="M343.177 430.877C343.958 431.658 343.958 432.924 343.177 433.705C342.396 434.486 341.13 434.486 340.348 433.705C339.567 432.924 339.567 431.658 340.348 430.877C341.13 430.096 342.396 430.096 343.177 430.877Z" fill="#CCCFD7"/>
<path d="M411.059 362.995C411.84 363.776 411.84 365.042 411.059 365.823C410.278 366.604 409.012 366.604 408.231 365.823C407.45 365.042 407.45 363.776 408.231 362.995C409.012 362.214 410.278 362.214 411.059 362.995Z" fill="#CCCFD7"/>
<path d="M478.941 295.113C479.722 295.894 479.722 297.161 478.941 297.942C478.16 298.723 476.894 298.723 476.113 297.942C475.332 297.161 475.332 295.894 476.113 295.113C476.894 294.332 478.16 294.332 478.941 295.113Z" fill="#CCCFD7"/>
<path d="M546.824 227.23C547.605 228.011 547.605 229.278 546.824 230.059C546.043 230.84 544.776 230.84 543.995 230.059C543.214 229.278 543.214 228.011 543.995 227.23C544.776 226.449 546.043 226.449 546.824 227.23Z" fill="#CCCFD7"/>
<path d="M614.706 159.348C615.487 160.13 615.487 161.396 614.706 162.177C613.925 162.958 612.658 162.958 611.877 162.177C611.096 161.396 611.096 160.13 611.877 159.348C612.658 158.567 613.925 158.567 614.706 159.348Z" fill="#CCCFD7"/>
<path d="M682.588 91.4657C683.369 92.2467 683.369 93.513 682.588 94.2941C681.807 95.0751 680.541 95.0751 679.76 94.2941C678.979 93.513 678.979 92.2467 679.76 91.4657C680.541 90.6846 681.807 90.6846 682.588 91.4657Z" fill="#CCCFD7"/>
<path d="M750.47 23.5838C751.251 24.3649 751.251 25.6312 750.47 26.4123C749.689 27.1933 748.423 27.1933 747.642 26.4123C746.861 25.6312 746.861 24.3649 747.642 23.5838C748.423 22.8028 749.689 22.8028 750.47 23.5838Z" fill="#CCCFD7"/>
<path d="M818.353 -44.299C819.134 -43.5179 819.134 -42.2516 818.353 -41.4706C817.572 -40.6895 816.305 -40.6895 815.524 -41.4706C814.743 -42.2516 814.743 -43.5179 815.524 -44.299C816.305 -45.08 817.572 -45.08 818.353 -44.299Z" fill="#CCCFD7"/>
<path d="M411.059 498.76C411.84 499.541 411.84 500.807 411.059 501.588C410.278 502.369 409.012 502.369 408.231 501.588C407.45 500.807 407.45 499.541 408.231 498.76C409.012 497.979 410.278 497.979 411.059 498.76Z" fill="#CCCFD7"/>
<path d="M478.941 430.877C479.722 431.658 479.722 432.924 478.941 433.705C478.16 434.486 476.894 434.486 476.113 433.705C475.332 432.924 475.332 431.658 476.113 430.877C476.894 430.096 478.16 430.096 478.941 430.877Z" fill="#CCCFD7"/>
<path d="M546.824 362.995C547.605 363.776 547.605 365.042 546.824 365.823C546.043 366.604 544.776 366.604 543.995 365.823C543.214 365.042 543.214 363.776 543.995 362.995C544.776 362.214 546.043 362.214 546.824 362.995Z" fill="#CCCFD7"/>
<path d="M614.706 295.113C615.487 295.894 615.487 297.161 614.706 297.942C613.925 298.723 612.658 298.723 611.877 297.942C611.096 297.161 611.096 295.894 611.877 295.113C612.658 294.332 613.925 294.332 614.706 295.113Z" fill="#CCCFD7"/>
<path d="M682.588 227.23C683.369 228.011 683.369 229.278 682.588 230.059C681.807 230.84 680.541 230.84 679.76 230.059C678.979 229.278 678.979 228.011 679.76 227.23C680.541 226.449 681.807 226.449 682.588 227.23Z" fill="#CCCFD7"/>
<path d="M750.47 159.348C751.251 160.13 751.251 161.396 750.47 162.177C749.689 162.958 748.423 162.958 747.642 162.177C746.861 161.396 746.861 160.13 747.642 159.348C748.423 158.567 749.689 158.567 750.47 159.348Z" fill="#CCCFD7"/>
<path d="M818.353 91.4657C819.134 92.2467 819.134 93.513 818.353 94.2941C817.572 95.0751 816.305 95.0751 815.524 94.2941C814.743 93.513 814.743 92.2467 815.524 91.4657C816.305 90.6846 817.572 90.6846 818.353 91.4657Z" fill="#CCCFD7"/>
<path d="M886.235 23.5838C887.016 24.3649 887.016 25.6312 886.235 26.4123C885.454 27.1933 884.187 27.1933 883.406 26.4123C882.625 25.6312 882.625 24.3649 883.406 23.5838C884.187 22.8028 885.454 22.8028 886.235 23.5838Z" fill="#CCCFD7"/>
<path d="M478.941 566.641C479.722 567.423 479.722 568.689 478.941 569.47C478.16 570.251 476.894 570.251 476.113 569.47C475.332 568.689 475.332 567.423 476.113 566.641C476.894 565.86 478.16 565.86 478.941 566.641Z" fill="#CCCFD7"/>
<path d="M546.824 498.76C547.605 499.541 547.605 500.807 546.824 501.588C546.043 502.369 544.776 502.369 543.995 501.588C543.214 500.807 543.214 499.541 543.995 498.76C544.776 497.979 546.043 497.979 546.824 498.76Z" fill="#CCCFD7"/>
<path d="M614.706 430.877C615.487 431.658 615.487 432.924 614.706 433.705C613.925 434.486 612.658 434.486 611.877 433.705C611.096 432.924 611.096 431.658 611.877 430.877C612.658 430.096 613.925 430.096 614.706 430.877Z" fill="#CCCFD7"/>
<path d="M682.588 362.995C683.369 363.776 683.369 365.042 682.588 365.823C681.807 366.604 680.541 366.604 679.76 365.823C678.979 365.042 678.979 363.776 679.76 362.995C680.541 362.214 681.807 362.214 682.588 362.995Z" fill="#CCCFD7"/>
<path d="M750.47 295.113C751.251 295.894 751.251 297.161 750.47 297.942C749.689 298.723 748.423 298.723 747.642 297.942C746.861 297.161 746.861 295.894 747.642 295.113C748.423 294.332 749.689 294.332 750.47 295.113Z" fill="#CCCFD7"/>
<path d="M818.353 227.23C819.134 228.011 819.134 229.278 818.353 230.059C817.572 230.84 816.305 230.84 815.524 230.059C814.743 229.278 814.743 228.011 815.524 227.23C816.305 226.449 817.572 226.449 818.353 227.23Z" fill="#CCCFD7"/>
<path d="M886.235 159.348C887.016 160.13 887.016 161.396 886.235 162.177C885.454 162.958 884.187 162.958 883.406 162.177C882.625 161.396 882.625 160.13 883.406 159.348C884.187 158.567 885.454 158.567 886.235 159.348Z" fill="#CCCFD7"/>
<path d="M954.117 91.4657C954.898 92.2467 954.898 93.513 954.117 94.2941C953.336 95.0751 952.07 95.0751 951.289 94.2941C950.508 93.513 950.508 92.2467 951.289 91.4657C952.07 90.6846 953.336 90.6846 954.117 91.4657Z" fill="#CCCFD7"/>
<path d="M546.824 634.524C547.605 635.305 547.605 636.572 546.824 637.353C546.043 638.134 544.776 638.134 543.995 637.353C543.214 636.572 543.214 635.305 543.995 634.524C544.776 633.743 546.043 633.743 546.824 634.524Z" fill="#CCCFD7"/>
<path d="M614.706 566.641C615.487 567.423 615.487 568.689 614.706 569.47C613.925 570.251 612.658 570.251 611.877 569.47C611.096 568.689 611.096 567.423 611.877 566.641C612.658 565.86 613.925 565.86 614.706 566.641Z" fill="#CCCFD7"/>
<path d="M682.588 498.76C683.369 499.541 683.369 500.807 682.588 501.588C681.807 502.369 680.541 502.369 679.76 501.588C678.979 500.807 678.979 499.541 679.76 498.76C680.541 497.979 681.807 497.979 682.588 498.76Z" fill="#CCCFD7"/>
<path d="M750.47 430.877C751.251 431.658 751.251 432.924 750.47 433.705C749.689 434.486 748.423 434.486 747.642 433.705C746.861 432.924 746.861 431.658 747.642 430.877C748.423 430.096 749.689 430.096 750.47 430.877Z" fill="#CCCFD7"/>
<path d="M818.353 362.995C819.134 363.776 819.134 365.042 818.353 365.823C817.572 366.604 816.305 366.604 815.524 365.823C814.743 365.042 814.743 363.776 815.524 362.995C816.305 362.214 817.572 362.214 818.353 362.995Z" fill="#CCCFD7"/>
<path d="M886.235 295.113C887.016 295.894 887.016 297.161 886.235 297.942C885.454 298.723 884.187 298.723 883.406 297.942C882.625 297.161 882.625 295.894 883.406 295.113C884.187 294.332 885.454 294.332 886.235 295.113Z" fill="#CCCFD7"/>
<path d="M954.117 227.23C954.898 228.011 954.898 229.278 954.117 230.059C953.336 230.84 952.07 230.84 951.289 230.059C950.508 229.278 950.508 228.011 951.289 227.23C952.07 226.449 953.336 226.449 954.117 227.23Z" fill="#CCCFD7"/>
<path d="M1022 159.348C1022.78 160.13 1022.78 161.396 1022 162.177C1021.22 162.958 1019.95 162.958 1019.17 162.177C1018.39 161.396 1018.39 160.13 1019.17 159.348C1019.95 158.567 1021.22 158.567 1022 159.348Z" fill="#CCCFD7"/>
<path d="M1089.88 91.4657C1090.66 92.2467 1090.66 93.513 1089.88 94.2941C1089.1 95.0751 1087.83 95.0751 1087.05 94.2941C1086.27 93.513 1086.27 92.2467 1087.05 91.4657C1087.83 90.6846 1089.1 90.6846 1089.88 91.4657Z" fill="#CCCFD7"/>
<path d="M546.824 770.288C547.605 771.069 547.605 772.335 546.824 773.116C546.043 773.897 544.776 773.897 543.995 773.116C543.214 772.335 543.214 771.069 543.995 770.288C544.776 769.507 546.043 769.507 546.824 770.288Z" fill="#CCCFD7"/>
<path d="M614.706 702.406C615.487 703.187 615.487 704.453 614.706 705.235C613.925 706.016 612.658 706.016 611.877 705.235C611.096 704.453 611.096 703.187 611.877 702.406C612.658 701.625 613.925 701.625 614.706 702.406Z" fill="#CCCFD7"/>
<path d="M682.588 634.524C683.369 635.305 683.369 636.572 682.588 637.353C681.807 638.134 680.541 638.134 679.76 637.353C678.979 636.572 678.979 635.305 679.76 634.524C680.541 633.743 681.807 633.743 682.588 634.524Z" fill="#CCCFD7"/>
<path d="M750.47 566.641C751.251 567.423 751.251 568.689 750.47 569.47C749.689 570.251 748.423 570.251 747.642 569.47C746.861 568.689 746.861 567.423 747.642 566.641C748.423 565.86 749.689 565.86 750.47 566.641Z" fill="#CCCFD7"/>
<path d="M818.353 498.76C819.134 499.541 819.134 500.807 818.353 501.588C817.572 502.369 816.305 502.369 815.524 501.588C814.743 500.807 814.743 499.541 815.524 498.76C816.305 497.979 817.572 497.979 818.353 498.76Z" fill="#CCCFD7"/>
<path d="M886.235 430.877C887.016 431.658 887.016 432.924 886.235 433.705C885.454 434.486 884.187 434.486 883.406 433.705C882.625 432.924 882.625 431.658 883.406 430.877C884.187 430.096 885.454 430.096 886.235 430.877Z" fill="#CCCFD7"/>
<path d="M954.117 362.995C954.898 363.776 954.898 365.042 954.117 365.823C953.336 366.604 952.07 366.604 951.289 365.823C950.508 365.042 950.508 363.776 951.289 362.995C952.07 362.214 953.336 362.214 954.117 362.995Z" fill="#CCCFD7"/>
<path d="M1022 295.113C1022.78 295.894 1022.78 297.161 1022 297.942C1021.22 298.723 1019.95 298.723 1019.17 297.942C1018.39 297.161 1018.39 295.894 1019.17 295.113C1019.95 294.332 1021.22 294.332 1022 295.113Z" fill="#CCCFD7"/>
<path d="M1089.88 227.23C1090.66 228.011 1090.66 229.278 1089.88 230.059C1089.1 230.84 1087.83 230.84 1087.05 230.059C1086.27 229.278 1086.27 228.011 1087.05 227.23C1087.83 226.449 1089.1 226.449 1089.88 227.23Z" fill="#CCCFD7"/>
<path d="M1157.76 159.348C1158.54 160.13 1158.54 161.396 1157.76 162.177C1156.98 162.958 1155.72 162.958 1154.94 162.177C1154.15 161.396 1154.15 160.13 1154.94 159.348C1155.72 158.567 1156.98 158.567 1157.76 159.348Z" fill="#CCCFD7"/>
<path d="M614.706 838.171C615.487 838.952 615.487 840.218 614.706 840.999C613.925 841.78 612.658 841.78 611.877 840.999C611.096 840.218 611.096 838.952 611.877 838.171C612.658 837.39 613.925 837.39 614.706 838.171Z" fill="#CCCFD7"/>
<path d="M682.588 770.288C683.369 771.069 683.369 772.335 682.588 773.116C681.807 773.897 680.541 773.897 679.76 773.116C678.979 772.335 678.979 771.069 679.76 770.288C680.541 769.507 681.807 769.507 682.588 770.288Z" fill="#CCCFD7"/>
<path d="M750.47 702.406C751.251 703.187 751.251 704.453 750.47 705.235C749.689 706.016 748.423 706.016 747.642 705.235C746.861 704.453 746.861 703.187 747.642 702.406C748.423 701.625 749.689 701.625 750.47 702.406Z" fill="#CCCFD7"/>
<path d="M818.353 634.524C819.134 635.305 819.134 636.572 818.353 637.353C817.572 638.134 816.305 638.134 815.524 637.353C814.743 636.572 814.743 635.305 815.524 634.524C816.305 633.743 817.572 633.743 818.353 634.524Z" fill="#CCCFD7"/>
<path d="M886.235 566.641C887.016 567.423 887.016 568.689 886.235 569.47C885.454 570.251 884.187 570.251 883.406 569.47C882.625 568.689 882.625 567.423 883.406 566.641C884.187 565.86 885.454 565.86 886.235 566.641Z" fill="#CCCFD7"/>
<path d="M954.117 498.76C954.898 499.541 954.898 500.807 954.117 501.588C953.336 502.369 952.07 502.369 951.289 501.588C950.508 500.807 950.508 499.541 951.289 498.76C952.07 497.979 953.336 497.979 954.117 498.76Z" fill="#CCCFD7"/>
<path d="M1022 430.877C1022.78 431.658 1022.78 432.924 1022 433.705C1021.22 434.486 1019.95 434.486 1019.17 433.705C1018.39 432.924 1018.39 431.658 1019.17 430.877C1019.95 430.096 1021.22 430.096 1022 430.877Z" fill="#CCCFD7"/>
<path d="M1089.88 362.995C1090.66 363.776 1090.66 365.042 1089.88 365.823C1089.1 366.604 1087.83 366.604 1087.05 365.823C1086.27 365.042 1086.27 363.776 1087.05 362.995C1087.83 362.214 1089.1 362.214 1089.88 362.995Z" fill="#CCCFD7"/>
<path d="M1157.76 295.113C1158.54 295.894 1158.54 297.161 1157.76 297.942C1156.98 298.723 1155.72 298.723 1154.94 297.942C1154.15 297.161 1154.15 295.894 1154.94 295.113C1155.72 294.332 1156.98 294.332 1157.76 295.113Z" fill="#CCCFD7"/>
<path d="M1225.65 227.23C1226.43 228.011 1226.43 229.278 1225.65 230.059C1224.87 230.84 1223.6 230.84 1222.82 230.059C1222.04 229.278 1222.04 228.011 1222.82 227.23C1223.6 226.449 1224.87 226.449 1225.65 227.23Z" fill="#CCCFD7"/>
<path d="M1293.53 159.348C1294.31 160.13 1294.31 161.396 1293.53 162.177C1292.75 162.958 1291.48 162.958 1290.7 162.177C1289.92 161.396 1289.92 160.13 1290.7 159.348C1291.48 158.567 1292.75 158.567 1293.53 159.348Z" fill="#CCCFD7"/>
<path d="M682.588 906.053C683.369 906.834 683.369 908.1 682.588 908.881C681.807 909.662 680.541 909.662 679.76 908.881C678.979 908.1 678.979 906.834 679.76 906.053C680.541 905.272 681.807 905.272 682.588 906.053Z" fill="#CCCFD7"/>
<path d="M750.47 838.171C751.251 838.952 751.251 840.218 750.47 840.999C749.689 841.78 748.423 841.78 747.642 840.999C746.861 840.218 746.861 838.952 747.642 838.171C748.423 837.39 749.689 837.39 750.47 838.171Z" fill="#CCCFD7"/>
<path d="M818.353 770.288C819.134 771.069 819.134 772.335 818.353 773.116C817.572 773.897 816.305 773.897 815.524 773.116C814.743 772.335 814.743 771.069 815.524 770.288C816.305 769.507 817.572 769.507 818.353 770.288Z" fill="#CCCFD7"/>
<path d="M886.235 702.406C887.016 703.187 887.016 704.453 886.235 705.235C885.454 706.016 884.187 706.016 883.406 705.235C882.625 704.453 882.625 703.187 883.406 702.406C884.187 701.625 885.454 701.625 886.235 702.406Z" fill="#CCCFD7"/>
<path d="M954.117 634.524C954.898 635.305 954.898 636.572 954.117 637.353C953.336 638.134 952.07 638.134 951.289 637.353C950.508 636.572 950.508 635.305 951.289 634.524C952.07 633.743 953.336 633.743 954.117 634.524Z" fill="#CCCFD7"/>
<path d="M1022 566.641C1022.78 567.423 1022.78 568.689 1022 569.47C1021.22 570.251 1019.95 570.251 1019.17 569.47C1018.39 568.689 1018.39 567.423 1019.17 566.641C1019.95 565.86 1021.22 565.86 1022 566.641Z" fill="#CCCFD7"/>
<path d="M1089.88 498.76C1090.66 499.541 1090.66 500.807 1089.88 501.588C1089.1 502.369 1087.83 502.369 1087.05 501.588C1086.27 500.807 1086.27 499.541 1087.05 498.76C1087.83 497.979 1089.1 497.979 1089.88 498.76Z" fill="#CCCFD7"/>
<path d="M1157.76 430.877C1158.54 431.658 1158.54 432.924 1157.76 433.705C1156.98 434.486 1155.72 434.486 1154.94 433.705C1154.15 432.924 1154.15 431.658 1154.94 430.877C1155.72 430.096 1156.98 430.096 1157.76 430.877Z" fill="#CCCFD7"/>
<path d="M1225.65 362.995C1226.43 363.776 1226.43 365.042 1225.65 365.823C1224.87 366.604 1223.6 366.604 1222.82 365.823C1222.04 365.042 1222.04 363.776 1222.82 362.995C1223.6 362.214 1224.87 362.214 1225.65 362.995Z" fill="#CCCFD7"/>
<path d="M1293.53 295.113C1294.31 295.894 1294.31 297.161 1293.53 297.942C1292.75 298.723 1291.48 298.723 1290.7 297.942C1289.92 297.161 1289.92 295.894 1290.7 295.113C1291.48 294.332 1292.75 294.332 1293.53 295.113Z" fill="#CCCFD7"/>
<path d="M1361.41 227.23C1362.19 228.011 1362.19 229.278 1361.41 230.059C1360.63 230.84 1359.36 230.84 1358.58 230.059C1357.8 229.278 1357.8 228.011 1358.58 227.23C1359.36 226.449 1360.63 226.449 1361.41 227.23Z" fill="#CCCFD7"/>
<path d="M682.588 1041.82C683.369 1042.6 683.369 1043.86 682.588 1044.65C681.807 1045.43 680.541 1045.43 679.76 1044.65C678.979 1043.86 678.979 1042.6 679.76 1041.82C680.541 1041.04 681.807 1041.04 682.588 1041.82Z" fill="#CCCFD7"/>
<path d="M614.706 1109.7C615.487 1110.48 615.487 1111.75 614.706 1112.53C613.925 1113.31 612.658 1113.31 611.877 1112.53C611.096 1111.75 611.096 1110.48 611.877 1109.7C612.658 1108.92 613.925 1108.92 614.706 1109.7Z" fill="#CCCFD7"/>
<path d="M750.47 973.935C751.251 974.716 751.251 975.983 750.47 976.764C749.689 977.545 748.423 977.545 747.642 976.764C746.861 975.983 746.861 974.716 747.642 973.935C748.423 973.154 749.689 973.154 750.47 973.935Z" fill="#CCCFD7"/>
<path d="M818.353 906.053C819.134 906.834 819.134 908.1 818.353 908.881C817.572 909.662 816.305 909.662 815.524 908.881C814.743 908.1 814.743 906.834 815.524 906.053C816.305 905.272 817.572 905.272 818.353 906.053Z" fill="#CCCFD7"/>
<path d="M886.235 838.171C887.016 838.952 887.016 840.218 886.235 840.999C885.454 841.78 884.187 841.78 883.406 840.999C882.625 840.218 882.625 838.952 883.406 838.171C884.187 837.39 885.454 837.39 886.235 838.171Z" fill="#CCCFD7"/>
<path d="M954.117 770.288C954.898 771.069 954.898 772.335 954.117 773.116C953.336 773.897 952.07 773.897 951.289 773.116C950.508 772.335 950.508 771.069 951.289 770.288C952.07 769.507 953.336 769.507 954.117 770.288Z" fill="#CCCFD7"/>
<path d="M1022 702.406C1022.78 703.187 1022.78 704.453 1022 705.235C1021.22 706.016 1019.95 706.016 1019.17 705.235C1018.39 704.453 1018.39 703.187 1019.17 702.406C1019.95 701.625 1021.22 701.625 1022 702.406Z" fill="#CCCFD7"/>
<path d="M1089.88 634.524C1090.66 635.305 1090.66 636.572 1089.88 637.353C1089.1 638.134 1087.83 638.134 1087.05 637.353C1086.27 636.572 1086.27 635.305 1087.05 634.524C1087.83 633.743 1089.1 633.743 1089.88 634.524Z" fill="#CCCFD7"/>
<path d="M1157.76 566.641C1158.54 567.423 1158.54 568.689 1157.76 569.47C1156.98 570.251 1155.72 570.251 1154.94 569.47C1154.15 568.689 1154.15 567.423 1154.94 566.641C1155.72 565.86 1156.98 565.86 1157.76 566.641Z" fill="#CCCFD7"/>
<path d="M1225.65 498.76C1226.43 499.541 1226.43 500.807 1225.65 501.588C1224.87 502.369 1223.6 502.369 1222.82 501.588C1222.04 500.807 1222.04 499.541 1222.82 498.76C1223.6 497.979 1224.87 497.979 1225.65 498.76Z" fill="#CCCFD7"/>
<path d="M1293.53 430.877C1294.31 431.658 1294.31 432.924 1293.53 433.705C1292.75 434.486 1291.48 434.486 1290.7 433.705C1289.92 432.924 1289.92 431.658 1290.7 430.877C1291.48 430.096 1292.75 430.096 1293.53 430.877Z" fill="#CCCFD7"/>
<path d="M1361.41 362.995C1362.19 363.776 1362.19 365.042 1361.41 365.823C1360.63 366.604 1359.36 366.604 1358.58 365.823C1357.8 365.042 1357.8 363.776 1358.58 362.995C1359.36 362.214 1360.63 362.214 1361.41 362.995Z" fill="#CCCFD7"/>
<path d="M750.47 1109.7C751.251 1110.48 751.251 1111.75 750.47 1112.53C749.689 1113.31 748.423 1113.31 747.642 1112.53C746.861 1111.75 746.861 1110.48 747.642 1109.7C748.423 1108.92 749.689 1108.92 750.47 1109.7Z" fill="#CCCFD7"/>
<path d="M682.588 1177.58C683.369 1178.36 683.369 1179.63 682.588 1180.41C681.807 1181.19 680.541 1181.19 679.76 1180.41C678.979 1179.63 678.979 1178.36 679.76 1177.58C680.541 1176.8 681.807 1176.8 682.588 1177.58Z" fill="#CCCFD7"/>
<path d="M818.353 1041.82C819.134 1042.6 819.134 1043.86 818.353 1044.65C817.572 1045.43 816.305 1045.43 815.524 1044.65C814.743 1043.86 814.743 1042.6 815.524 1041.82C816.305 1041.04 817.572 1041.04 818.353 1041.82Z" fill="#CCCFD7"/>
<path d="M886.235 973.935C887.016 974.716 887.016 975.983 886.235 976.764C885.454 977.545 884.187 977.545 883.406 976.764C882.625 975.983 882.625 974.716 883.406 973.935C884.187 973.154 885.454 973.154 886.235 973.935Z" fill="#CCCFD7"/>
<path d="M954.117 906.053C954.898 906.834 954.898 908.1 954.117 908.881C953.336 909.662 952.07 909.662 951.289 908.881C950.508 908.1 950.508 906.834 951.289 906.053C952.07 905.272 953.336 905.272 954.117 906.053Z" fill="#CCCFD7"/>
<path d="M1022 838.171C1022.78 838.952 1022.78 840.218 1022 840.999C1021.22 841.78 1019.95 841.78 1019.17 840.999C1018.39 840.218 1018.39 838.952 1019.17 838.171C1019.95 837.39 1021.22 837.39 1022 838.171Z" fill="#CCCFD7"/>
<path d="M1089.88 770.288C1090.66 771.069 1090.66 772.335 1089.88 773.116C1089.1 773.897 1087.83 773.897 1087.05 773.116C1086.27 772.335 1086.27 771.069 1087.05 770.288C1087.83 769.507 1089.1 769.507 1089.88 770.288Z" fill="#CCCFD7"/>
<path d="M1157.76 702.406C1158.54 703.187 1158.54 704.453 1157.76 705.235C1156.98 706.016 1155.72 706.016 1154.94 705.235C1154.15 704.453 1154.15 703.187 1154.94 702.406C1155.72 701.625 1156.98 701.625 1157.76 702.406Z" fill="#CCCFD7"/>
<path d="M1225.65 634.524C1226.43 635.305 1226.43 636.572 1225.65 637.353C1224.87 638.134 1223.6 638.134 1222.82 637.353C1222.04 636.572 1222.04 635.305 1222.82 634.524C1223.6 633.743 1224.87 633.743 1225.65 634.524Z" fill="#CCCFD7"/>
<path d="M818.353 1177.58C819.134 1178.36 819.134 1179.63 818.353 1180.41C817.572 1181.19 816.305 1181.19 815.524 1180.41C814.743 1179.63 814.743 1178.36 815.524 1177.58C816.305 1176.8 817.572 1176.8 818.353 1177.58Z" fill="#CCCFD7"/>
<path d="M750.47 1245.46C751.251 1246.24 751.251 1247.51 750.47 1248.29C749.689 1249.07 748.423 1249.07 747.642 1248.29C746.861 1247.51 746.861 1246.24 747.642 1245.46C748.423 1244.68 749.689 1244.68 750.47 1245.46Z" fill="#CCCFD7"/>
<path d="M886.235 1109.7C887.016 1110.48 887.016 1111.75 886.235 1112.53C885.454 1113.31 884.187 1113.31 883.406 1112.53C882.625 1111.75 882.625 1110.48 883.406 1109.7C884.187 1108.92 885.454 1108.92 886.235 1109.7Z" fill="#CCCFD7"/>
<path d="M1157.76 838.171C1158.54 838.952 1158.54 840.218 1157.76 840.999C1156.98 841.78 1155.72 841.78 1154.94 840.999C1154.15 840.218 1154.15 838.952 1154.94 838.171C1155.72 837.39 1156.98 837.39 1157.76 838.171Z" fill="#CCCFD7"/>
<path d="M1225.65 770.288C1226.43 771.069 1226.43 772.335 1225.65 773.116C1224.87 773.897 1223.6 773.897 1222.82 773.116C1222.04 772.335 1222.04 771.069 1222.82 770.288C1223.6 769.507 1224.87 769.507 1225.65 770.288Z" fill="#CCCFD7"/>
<path d="M3.76578 295.113C4.54682 295.894 4.54682 297.161 3.76578 297.942C2.98473 298.723 1.7184 298.723 0.937349 297.942C0.1563 297.161 0.1563 295.894 0.937349 295.113C1.7184 294.332 2.98473 294.332 3.76578 295.113Z" fill="#CCCFD7"/>
<path d="M71.6476 227.23C72.4287 228.011 72.4287 229.278 71.6476 230.059C70.8666 230.84 69.6002 230.84 68.8192 230.059C68.0381 229.278 68.0381 228.011 68.8192 227.23C69.6002 226.449 70.8666 226.449 71.6476 227.23Z" fill="#CCCFD7"/>
<path d="M139.53 159.348C140.311 160.13 140.311 161.396 139.53 162.177C138.749 162.958 137.483 162.958 136.702 162.177C135.92 161.396 135.92 160.13 136.702 159.348C137.483 158.567 138.749 158.567 139.53 159.348Z" fill="#CCCFD7"/>
<path d="M207.412 91.4657C208.193 92.2467 208.193 93.513 207.412 94.2941C206.631 95.0751 205.365 95.0751 204.584 94.2941C203.803 93.513 203.803 92.2467 204.584 91.4657C205.365 90.6846 206.631 90.6846 207.412 91.4657Z" fill="#CCCFD7"/>
<path d="M275.295 23.5838C276.076 24.3649 276.076 25.6312 275.295 26.4123C274.514 27.1933 273.247 27.1933 272.466 26.4123C271.685 25.6312 271.685 24.3649 272.466 23.5838C273.247 22.8028 274.514 22.8028 275.295 23.5838Z" fill="#CCCFD7"/>
<path d="M343.177 -44.299C343.958 -43.5179 343.958 -42.2516 343.177 -41.4706C342.396 -40.6895 341.13 -40.6895 340.348 -41.4706C339.567 -42.2516 339.567 -43.5179 340.348 -44.299C341.13 -45.08 342.396 -45.08 343.177 -44.299Z" fill="#CCCFD7"/>
<path d="M411.059 -112.181C411.84 -111.4 411.84 -110.133 411.059 -109.352C410.278 -108.571 409.012 -108.571 408.231 -109.352C407.45 -110.133 407.45 -111.4 408.231 -112.181C409.012 -112.962 410.278 -112.962 411.059 -112.181Z" fill="#CCCFD7"/>
<path d="M71.6476 362.995C72.4287 363.776 72.4287 365.042 71.6476 365.823C70.8666 366.604 69.6002 366.604 68.8192 365.823C68.0381 365.042 68.0381 363.776 68.8192 362.995C69.6002 362.214 70.8666 362.214 71.6476 362.995Z" fill="#CCCFD7"/>
<path d="M139.53 295.113C140.311 295.894 140.311 297.161 139.53 297.942C138.749 298.723 137.483 298.723 136.702 297.942C135.92 297.161 135.92 295.894 136.702 295.113C137.483 294.332 138.749 294.332 139.53 295.113Z" fill="#CCCFD7"/>
<path d="M207.412 227.23C208.193 228.011 208.193 229.278 207.412 230.059C206.631 230.84 205.365 230.84 204.584 230.059C203.803 229.278 203.803 228.011 204.584 227.23C205.365 226.449 206.631 226.449 207.412 227.23Z" fill="#CCCFD7"/>
<path d="M275.295 159.348C276.076 160.13 276.076 161.396 275.295 162.177C274.514 162.958 273.247 162.958 272.466 162.177C271.685 161.396 271.685 160.13 272.466 159.348C273.247 158.567 274.514 158.567 275.295 159.348Z" fill="#CCCFD7"/>
<path d="M343.177 91.4657C343.958 92.2467 343.958 93.513 343.177 94.2941C342.396 95.0751 341.13 95.0751 340.348 94.2941C339.567 93.513 339.567 92.2467 340.348 91.4657C341.13 90.6846 342.396 90.6846 343.177 91.4657Z" fill="#CCCFD7"/>
<path d="M411.059 23.5838C411.84 24.3649 411.84 25.6312 411.059 26.4123C410.278 27.1933 409.012 27.1933 408.231 26.4123C407.45 25.6312 407.45 24.3649 408.231 23.5838C409.012 22.8028 410.278 22.8028 411.059 23.5838Z" fill="#CCCFD7"/>
<path d="M478.941 -44.299C479.722 -43.5179 479.722 -42.2516 478.941 -41.4706C478.16 -40.6895 476.894 -40.6895 476.113 -41.4706C475.332 -42.2516 475.332 -43.5179 476.113 -44.299C476.894 -45.08 478.16 -45.08 478.941 -44.299Z" fill="#CCCFD7"/>
<path d="M139.53 430.877C140.311 431.658 140.311 432.924 139.53 433.705C138.749 434.486 137.483 434.486 136.702 433.705C135.92 432.924 135.92 431.658 136.702 430.877C137.483 430.096 138.749 430.096 139.53 430.877Z" fill="#CCCFD7"/>
<path d="M207.412 362.995C208.193 363.776 208.193 365.042 207.412 365.823C206.631 366.604 205.365 366.604 204.584 365.823C203.803 365.042 203.803 363.776 204.584 362.995C205.365 362.214 206.631 362.214 207.412 362.995Z" fill="#CCCFD7"/>
<path d="M275.295 295.113C276.076 295.894 276.076 297.161 275.295 297.942C274.514 298.723 273.247 298.723 272.466 297.942C271.685 297.161 271.685 295.894 272.466 295.113C273.247 294.332 274.514 294.332 275.295 295.113Z" fill="#CCCFD7"/>
<path d="M343.177 227.23C343.958 228.011 343.958 229.278 343.177 230.059C342.396 230.84 341.13 230.84 340.348 230.059C339.567 229.278 339.567 228.011 340.348 227.23C341.13 226.449 342.396 226.449 343.177 227.23Z" fill="#CCCFD7"/>
<path d="M411.059 159.348C411.84 160.13 411.84 161.396 411.059 162.177C410.278 162.958 409.012 162.958 408.231 162.177C407.45 161.396 407.45 160.13 408.231 159.348C409.012 158.567 410.278 158.567 411.059 159.348Z" fill="#CCCFD7"/>
<path d="M478.941 91.4657C479.722 92.2467 479.722 93.513 478.941 94.2941C478.16 95.0751 476.894 95.0751 476.113 94.2941C475.332 93.513 475.332 92.2467 476.113 91.4657C476.894 90.6846 478.16 90.6846 478.941 91.4657Z" fill="#CCCFD7"/>
<path d="M546.824 23.5838C547.605 24.3649 547.605 25.6312 546.824 26.4123C546.043 27.1933 544.776 27.1933 543.995 26.4123C543.214 25.6312 543.214 24.3649 543.995 23.5838C544.776 22.8028 546.043 22.8028 546.824 23.5838Z" fill="#CCCFD7"/>
<path d="M614.706 -44.299C615.487 -43.5179 615.487 -42.2516 614.706 -41.4706C613.925 -40.6895 612.658 -40.6895 611.877 -41.4706C611.096 -42.2516 611.096 -43.5179 611.877 -44.299C612.658 -45.08 613.925 -45.08 614.706 -44.299Z" fill="#CCCFD7"/>
<path d="M275.295 430.877C276.076 431.658 276.076 432.924 275.295 433.705C274.514 434.486 273.247 434.486 272.466 433.705C271.685 432.924 271.685 431.658 272.466 430.877C273.247 430.096 274.514 430.096 275.295 430.877Z" fill="#CCCFD7"/>
<path d="M343.177 362.995C343.958 363.776 343.958 365.042 343.177 365.823C342.396 366.604 341.13 366.604 340.348 365.823C339.567 365.042 339.567 363.776 340.348 362.995C341.13 362.214 342.396 362.214 343.177 362.995Z" fill="#CCCFD7"/>
<path d="M411.059 295.113C411.84 295.894 411.84 297.161 411.059 297.942C410.278 298.723 409.012 298.723 408.231 297.942C407.45 297.161 407.45 295.894 408.231 295.113C409.012 294.332 410.278 294.332 411.059 295.113Z" fill="#CCCFD7"/>
<path d="M478.941 227.23C479.722 228.011 479.722 229.278 478.941 230.059C478.16 230.84 476.894 230.84 476.113 230.059C475.332 229.278 475.332 228.011 476.113 227.23C476.894 226.449 478.16 226.449 478.941 227.23Z" fill="#CCCFD7"/>
<path d="M546.824 159.348C547.605 160.13 547.605 161.396 546.824 162.177C546.043 162.958 544.776 162.958 543.995 162.177C543.214 161.396 543.214 160.13 543.995 159.348C544.776 158.567 546.043 158.567 546.824 159.348Z" fill="#CCCFD7"/>
<path d="M614.706 91.4657C615.487 92.2467 615.487 93.513 614.706 94.2941C613.925 95.0751 612.658 95.0751 611.877 94.2941C611.096 93.513 611.096 92.2467 611.877 91.4657C612.658 90.6846 613.925 90.6846 614.706 91.4657Z" fill="#CCCFD7"/>
<path d="M682.588 23.5838C683.369 24.3649 683.369 25.6312 682.588 26.4123C681.807 27.1933 680.541 27.1933 679.76 26.4123C678.979 25.6312 678.979 24.3649 679.76 23.5838C680.541 22.8028 681.807 22.8028 682.588 23.5838Z" fill="#CCCFD7"/>
<path d="M750.47 -44.299C751.251 -43.5179 751.251 -42.2516 750.47 -41.4706C749.689 -40.6895 748.423 -40.6895 747.642 -41.4706C746.861 -42.2516 746.861 -43.5179 747.642 -44.299C748.423 -45.08 749.689 -45.08 750.47 -44.299Z" fill="#CCCFD7"/>
<path d="M411.059 430.877C411.84 431.658 411.84 432.924 411.059 433.705C410.278 434.486 409.012 434.486 408.231 433.705C407.45 432.924 407.45 431.658 408.231 430.877C409.012 430.096 410.278 430.096 411.059 430.877Z" fill="#CCCFD7"/>
<path d="M478.941 362.995C479.722 363.776 479.722 365.042 478.941 365.823C478.16 366.604 476.894 366.604 476.113 365.823C475.332 365.042 475.332 363.776 476.113 362.995C476.894 362.214 478.16 362.214 478.941 362.995Z" fill="#CCCFD7"/>
<path d="M546.824 295.113C547.605 295.894 547.605 297.161 546.824 297.942C546.043 298.723 544.776 298.723 543.995 297.942C543.214 297.161 543.214 295.894 543.995 295.113C544.776 294.332 546.043 294.332 546.824 295.113Z" fill="#CCCFD7"/>
<path d="M614.706 227.23C615.487 228.011 615.487 229.278 614.706 230.059C613.925 230.84 612.658 230.84 611.877 230.059C611.096 229.278 611.096 228.011 611.877 227.23C612.658 226.449 613.925 226.449 614.706 227.23Z" fill="#CCCFD7"/>
<path d="M682.588 159.348C683.369 160.13 683.369 161.396 682.588 162.177C681.807 162.958 680.541 162.958 679.76 162.177C678.979 161.396 678.979 160.13 679.76 159.348C680.541 158.567 681.807 158.567 682.588 159.348Z" fill="#CCCFD7"/>
<path d="M750.47 91.4657C751.251 92.2467 751.251 93.513 750.47 94.2941C749.689 95.0751 748.423 95.0751 747.642 94.2941C746.861 93.513 746.861 92.2467 747.642 91.4657C748.423 90.6846 749.689 90.6846 750.47 91.4657Z" fill="#CCCFD7"/>
<path d="M818.353 23.5838C819.134 24.3649 819.134 25.6312 818.353 26.4123C817.572 27.1933 816.305 27.1933 815.524 26.4123C814.743 25.6312 814.743 24.3649 815.524 23.5838C816.305 22.8028 817.572 22.8028 818.353 23.5838Z" fill="#CCCFD7"/>
<path d="M478.941 498.76C479.722 499.541 479.722 500.807 478.941 501.588C478.16 502.369 476.894 502.369 476.113 501.588C475.332 500.807 475.332 499.541 476.113 498.76C476.894 497.979 478.16 497.979 478.941 498.76Z" fill="#CCCFD7"/>
<path d="M546.824 430.877C547.605 431.658 547.605 432.924 546.824 433.705C546.043 434.486 544.776 434.486 543.995 433.705C543.214 432.924 543.214 431.658 543.995 430.877C544.776 430.096 546.043 430.096 546.824 430.877Z" fill="#CCCFD7"/>
<path d="M614.706 362.995C615.487 363.776 615.487 365.042 614.706 365.823C613.925 366.604 612.658 366.604 611.877 365.823C611.096 365.042 611.096 363.776 611.877 362.995C612.658 362.214 613.925 362.214 614.706 362.995Z" fill="#CCCFD7"/>
<path d="M682.588 295.113C683.369 295.894 683.369 297.161 682.588 297.942C681.807 298.723 680.541 298.723 679.76 297.942C678.979 297.161 678.979 295.894 679.76 295.113C680.541 294.332 681.807 294.332 682.588 295.113Z" fill="#CCCFD7"/>
<path d="M750.47 227.23C751.251 228.011 751.251 229.278 750.47 230.059C749.689 230.84 748.423 230.84 747.642 230.059C746.861 229.278 746.861 228.011 747.642 227.23C748.423 226.449 749.689 226.449 750.47 227.23Z" fill="#CCCFD7"/>
<path d="M818.353 159.348C819.134 160.13 819.134 161.396 818.353 162.177C817.572 162.958 816.305 162.958 815.524 162.177C814.743 161.396 814.743 160.13 815.524 159.348C816.305 158.567 817.572 158.567 818.353 159.348Z" fill="#CCCFD7"/>
<path d="M886.235 91.4657C887.016 92.2467 887.016 93.513 886.235 94.2941C885.454 95.0751 884.187 95.0751 883.406 94.2941C882.625 93.513 882.625 92.2467 883.406 91.4657C884.187 90.6846 885.454 90.6846 886.235 91.4657Z" fill="#CCCFD7"/>
<path d="M546.824 566.641C547.605 567.423 547.605 568.689 546.824 569.47C546.043 570.251 544.776 570.251 543.995 569.47C543.214 568.689 543.214 567.423 543.995 566.641C544.776 565.86 546.043 565.86 546.824 566.641Z" fill="#CCCFD7"/>
<path d="M614.706 498.76C615.487 499.541 615.487 500.807 614.706 501.588C613.925 502.369 612.658 502.369 611.877 501.588C611.096 500.807 611.096 499.541 611.877 498.76C612.658 497.979 613.925 497.979 614.706 498.76Z" fill="#CCCFD7"/>
<path d="M682.588 430.877C683.369 431.658 683.369 432.924 682.588 433.705C681.807 434.486 680.541 434.486 679.76 433.705C678.979 432.924 678.979 431.658 679.76 430.877C680.541 430.096 681.807 430.096 682.588 430.877Z" fill="#CCCFD7"/>
<path d="M750.47 362.995C751.251 363.776 751.251 365.042 750.47 365.823C749.689 366.604 748.423 366.604 747.642 365.823C746.861 365.042 746.861 363.776 747.642 362.995C748.423 362.214 749.689 362.214 750.47 362.995Z" fill="#CCCFD7"/>
<path d="M818.353 295.113C819.134 295.894 819.134 297.161 818.353 297.942C817.572 298.723 816.305 298.723 815.524 297.942C814.743 297.161 814.743 295.894 815.524 295.113C816.305 294.332 817.572 294.332 818.353 295.113Z" fill="#CCCFD7"/>
<path d="M886.235 227.23C887.016 228.011 887.016 229.278 886.235 230.059C885.454 230.84 884.187 230.84 883.406 230.059C882.625 229.278 882.625 228.011 883.406 227.23C884.187 226.449 885.454 226.449 886.235 227.23Z" fill="#CCCFD7"/>
<path d="M954.117 159.348C954.898 160.13 954.898 161.396 954.117 162.177C953.336 162.958 952.07 162.958 951.289 162.177C950.508 161.396 950.508 160.13 951.289 159.348C952.07 158.567 953.336 158.567 954.117 159.348Z" fill="#CCCFD7"/>
<path d="M1022 91.4657C1022.78 92.2467 1022.78 93.513 1022 94.2941C1021.22 95.0751 1019.95 95.0751 1019.17 94.2941C1018.39 93.513 1018.39 92.2467 1019.17 91.4657C1019.95 90.6846 1021.22 90.6846 1022 91.4657Z" fill="#CCCFD7"/>
<path d="M546.824 702.406C547.605 703.187 547.605 704.453 546.824 705.235C546.043 706.016 544.776 706.016 543.995 705.235C543.214 704.453 543.214 703.187 543.995 702.406C544.776 701.625 546.043 701.625 546.824 702.406Z" fill="#CCCFD7"/>
<path d="M614.706 634.524C615.487 635.305 615.487 636.572 614.706 637.353C613.925 638.134 612.658 638.134 611.877 637.353C611.096 636.572 611.096 635.305 611.877 634.524C612.658 633.743 613.925 633.743 614.706 634.524Z" fill="#CCCFD7"/>
<path d="M682.588 566.641C683.369 567.423 683.369 568.689 682.588 569.47C681.807 570.251 680.541 570.251 679.76 569.47C678.979 568.689 678.979 567.423 679.76 566.641C680.541 565.86 681.807 565.86 682.588 566.641Z" fill="#CCCFD7"/>
<path d="M750.47 498.76C751.251 499.541 751.251 500.807 750.47 501.588C749.689 502.369 748.423 502.369 747.642 501.588C746.861 500.807 746.861 499.541 747.642 498.76C748.423 497.979 749.689 497.979 750.47 498.76Z" fill="#CCCFD7"/>
<path d="M818.353 430.877C819.134 431.658 819.134 432.924 818.353 433.705C817.572 434.486 816.305 434.486 815.524 433.705C814.743 432.924 814.743 431.658 815.524 430.877C816.305 430.096 817.572 430.096 818.353 430.877Z" fill="#CCCFD7"/>
<path d="M886.235 362.995C887.016 363.776 887.016 365.042 886.235 365.823C885.454 366.604 884.187 366.604 883.406 365.823C882.625 365.042 882.625 363.776 883.406 362.995C884.187 362.214 885.454 362.214 886.235 362.995Z" fill="#CCCFD7"/>
<path d="M954.117 295.113C954.898 295.894 954.898 297.161 954.117 297.942C953.336 298.723 952.07 298.723 951.289 297.942C950.508 297.161 950.508 295.894 951.289 295.113C952.07 294.332 953.336 294.332 954.117 295.113Z" fill="#CCCFD7"/>
<path d="M1022 227.23C1022.78 228.011 1022.78 229.278 1022 230.059C1021.22 230.84 1019.95 230.84 1019.17 230.059C1018.39 229.278 1018.39 228.011 1019.17 227.23C1019.95 226.449 1021.22 226.449 1022 227.23Z" fill="#CCCFD7"/>
<path d="M1089.88 159.348C1090.66 160.13 1090.66 161.396 1089.88 162.177C1089.1 162.958 1087.83 162.958 1087.05 162.177C1086.27 161.396 1086.27 160.13 1087.05 159.348C1087.83 158.567 1089.1 158.567 1089.88 159.348Z" fill="#CCCFD7"/>
<path d="M614.706 770.288C615.487 771.069 615.487 772.335 614.706 773.116C613.925 773.897 612.658 773.897 611.877 773.116C611.096 772.335 611.096 771.069 611.877 770.288C612.658 769.507 613.925 769.507 614.706 770.288Z" fill="#CCCFD7"/>
<path d="M682.588 702.406C683.369 703.187 683.369 704.453 682.588 705.235C681.807 706.016 680.541 706.016 679.76 705.235C678.979 704.453 678.979 703.187 679.76 702.406C680.541 701.625 681.807 701.625 682.588 702.406Z" fill="#CCCFD7"/>
<path d="M750.47 634.524C751.251 635.305 751.251 636.572 750.47 637.353C749.689 638.134 748.423 638.134 747.642 637.353C746.861 636.572 746.861 635.305 747.642 634.524C748.423 633.743 749.689 633.743 750.47 634.524Z" fill="#CCCFD7"/>
<path d="M818.353 566.641C819.134 567.423 819.134 568.689 818.353 569.47C817.572 570.251 816.305 570.251 815.524 569.47C814.743 568.689 814.743 567.423 815.524 566.641C816.305 565.86 817.572 565.86 818.353 566.641Z" fill="#CCCFD7"/>
<path d="M886.235 498.76C887.016 499.541 887.016 500.807 886.235 501.588C885.454 502.369 884.187 502.369 883.406 501.588C882.625 500.807 882.625 499.541 883.406 498.76C884.187 497.979 885.454 497.979 886.235 498.76Z" fill="#CCCFD7"/>
<path d="M954.117 430.877C954.898 431.658 954.898 432.924 954.117 433.705C953.336 434.486 952.07 434.486 951.289 433.705C950.508 432.924 950.508 431.658 951.289 430.877C952.07 430.096 953.336 430.096 954.117 430.877Z" fill="#CCCFD7"/>
<path d="M1022 362.995C1022.78 363.776 1022.78 365.042 1022 365.823C1021.22 366.604 1019.95 366.604 1019.17 365.823C1018.39 365.042 1018.39 363.776 1019.17 362.995C1019.95 362.214 1021.22 362.214 1022 362.995Z" fill="#CCCFD7"/>
<path d="M1089.88 295.113C1090.66 295.894 1090.66 297.161 1089.88 297.942C1089.1 298.723 1087.83 298.723 1087.05 297.942C1086.27 297.161 1086.27 295.894 1087.05 295.113C1087.83 294.332 1089.1 294.332 1089.88 295.113Z" fill="#CCCFD7"/>
<path d="M1157.76 227.23C1158.54 228.011 1158.54 229.278 1157.76 230.059C1156.98 230.84 1155.72 230.84 1154.94 230.059C1154.15 229.278 1154.15 228.011 1154.94 227.23C1155.72 226.449 1156.98 226.449 1157.76 227.23Z" fill="#CCCFD7"/>
<path d="M1225.65 159.348C1226.43 160.13 1226.43 161.396 1225.65 162.177C1224.87 162.958 1223.6 162.958 1222.82 162.177C1222.04 161.396 1222.04 160.13 1222.82 159.348C1223.6 158.567 1224.87 158.567 1225.65 159.348Z" fill="#CCCFD7"/>
<path d="M682.588 838.171C683.369 838.952 683.369 840.218 682.588 840.999C681.807 841.78 680.541 841.78 679.76 840.999C678.979 840.218 678.979 838.952 679.76 838.171C680.541 837.39 681.807 837.39 682.588 838.171Z" fill="#CCCFD7"/>
<path d="M750.47 770.288C751.251 771.069 751.251 772.335 750.47 773.116C749.689 773.897 748.423 773.897 747.642 773.116C746.861 772.335 746.861 771.069 747.642 770.288C748.423 769.507 749.689 769.507 750.47 770.288Z" fill="#CCCFD7"/>
<path d="M818.353 702.406C819.134 703.187 819.134 704.453 818.353 705.235C817.572 706.016 816.305 706.016 815.524 705.235C814.743 704.453 814.743 703.187 815.524 702.406C816.305 701.625 817.572 701.625 818.353 702.406Z" fill="#CCCFD7"/>
<path d="M886.235 634.524C887.016 635.305 887.016 636.572 886.235 637.353C885.454 638.134 884.187 638.134 883.406 637.353C882.625 636.572 882.625 635.305 883.406 634.524C884.187 633.743 885.454 633.743 886.235 634.524Z" fill="#CCCFD7"/>
<path d="M954.117 566.641C954.898 567.423 954.898 568.689 954.117 569.47C953.336 570.251 952.07 570.251 951.289 569.47C950.508 568.689 950.508 567.423 951.289 566.641C952.07 565.86 953.336 565.86 954.117 566.641Z" fill="#CCCFD7"/>
<path d="M1022 498.76C1022.78 499.541 1022.78 500.807 1022 501.588C1021.22 502.369 1019.95 502.369 1019.17 501.588C1018.39 500.807 1018.39 499.541 1019.17 498.76C1019.95 497.979 1021.22 497.979 1022 498.76Z" fill="#CCCFD7"/>
<path d="M1089.88 430.877C1090.66 431.658 1090.66 432.924 1089.88 433.705C1089.1 434.486 1087.83 434.486 1087.05 433.705C1086.27 432.924 1086.27 431.658 1087.05 430.877C1087.83 430.096 1089.1 430.096 1089.88 430.877Z" fill="#CCCFD7"/>
<path d="M1157.76 362.995C1158.54 363.776 1158.54 365.042 1157.76 365.823C1156.98 366.604 1155.72 366.604 1154.94 365.823C1154.15 365.042 1154.15 363.776 1154.94 362.995C1155.72 362.214 1156.98 362.214 1157.76 362.995Z" fill="#CCCFD7"/>
<path d="M1225.65 295.113C1226.43 295.894 1226.43 297.161 1225.65 297.942C1224.87 298.723 1223.6 298.723 1222.82 297.942C1222.04 297.161 1222.04 295.894 1222.82 295.113C1223.6 294.332 1224.87 294.332 1225.65 295.113Z" fill="#CCCFD7"/>
<path d="M1293.53 227.23C1294.31 228.011 1294.31 229.278 1293.53 230.059C1292.75 230.84 1291.48 230.84 1290.7 230.059C1289.92 229.278 1289.92 228.011 1290.7 227.23C1291.48 226.449 1292.75 226.449 1293.53 227.23Z" fill="#CCCFD7"/>
<path d="M682.588 973.935C683.369 974.716 683.369 975.983 682.588 976.764C681.807 977.545 680.541 977.545 679.76 976.764C678.979 975.983 678.979 974.716 679.76 973.935C680.541 973.154 681.807 973.154 682.588 973.935Z" fill="#CCCFD7"/>
<path d="M750.47 906.053C751.251 906.834 751.251 908.1 750.47 908.881C749.689 909.662 748.423 909.662 747.642 908.881C746.861 908.1 746.861 906.834 747.642 906.053C748.423 905.272 749.689 905.272 750.47 906.053Z" fill="#CCCFD7"/>
<path d="M818.353 838.171C819.134 838.952 819.134 840.218 818.353 840.999C817.572 841.78 816.305 841.78 815.524 840.999C814.743 840.218 814.743 838.952 815.524 838.171C816.305 837.39 817.572 837.39 818.353 838.171Z" fill="#CCCFD7"/>
<path d="M886.235 770.288C887.016 771.069 887.016 772.335 886.235 773.116C885.454 773.897 884.187 773.897 883.406 773.116C882.625 772.335 882.625 771.069 883.406 770.288C884.187 769.507 885.454 769.507 886.235 770.288Z" fill="#CCCFD7"/>
<path d="M954.117 702.406C954.898 703.187 954.898 704.453 954.117 705.235C953.336 706.016 952.07 706.016 951.289 705.235C950.508 704.453 950.508 703.187 951.289 702.406C952.07 701.625 953.336 701.625 954.117 702.406Z" fill="#CCCFD7"/>
<path d="M1022 634.524C1022.78 635.305 1022.78 636.572 1022 637.353C1021.22 638.134 1019.95 638.134 1019.17 637.353C1018.39 636.572 1018.39 635.305 1019.17 634.524C1019.95 633.743 1021.22 633.743 1022 634.524Z" fill="#CCCFD7"/>
<path d="M1089.88 566.641C1090.66 567.423 1090.66 568.689 1089.88 569.47C1089.1 570.251 1087.83 570.251 1087.05 569.47C1086.27 568.689 1086.27 567.423 1087.05 566.641C1087.83 565.86 1089.1 565.86 1089.88 566.641Z" fill="#CCCFD7"/>
<path d="M1157.76 498.76C1158.54 499.541 1158.54 500.807 1157.76 501.588C1156.98 502.369 1155.72 502.369 1154.94 501.588C1154.15 500.807 1154.15 499.541 1154.94 498.76C1155.72 497.979 1156.98 497.979 1157.76 498.76Z" fill="#CCCFD7"/>
<path d="M1225.65 430.877C1226.43 431.658 1226.43 432.924 1225.65 433.705C1224.87 434.486 1223.6 434.486 1222.82 433.705C1222.04 432.924 1222.04 431.658 1222.82 430.877C1223.6 430.096 1224.87 430.096 1225.65 430.877Z" fill="#CCCFD7"/>
<path d="M1293.53 362.995C1294.31 363.776 1294.31 365.042 1293.53 365.823C1292.75 366.604 1291.48 366.604 1290.7 365.823C1289.92 365.042 1289.92 363.776 1290.7 362.995C1291.48 362.214 1292.75 362.214 1293.53 362.995Z" fill="#CCCFD7"/>
<path d="M1361.41 295.113C1362.19 295.894 1362.19 297.161 1361.41 297.942C1360.63 298.723 1359.36 298.723 1358.58 297.942C1357.8 297.161 1357.8 295.894 1358.58 295.113C1359.36 294.332 1360.63 294.332 1361.41 295.113Z" fill="#CCCFD7"/>
<path d="M750.47 1041.82C751.251 1042.6 751.251 1043.86 750.47 1044.65C749.689 1045.43 748.423 1045.43 747.642 1044.65C746.861 1043.86 746.861 1042.6 747.642 1041.82C748.423 1041.04 749.689 1041.04 750.47 1041.82Z" fill="#CCCFD7"/>
<path d="M682.588 1109.7C683.369 1110.48 683.369 1111.75 682.588 1112.53C681.807 1113.31 680.541 1113.31 679.76 1112.53C678.979 1111.75 678.979 1110.48 679.76 1109.7C680.541 1108.92 681.807 1108.92 682.588 1109.7Z" fill="#CCCFD7"/>
<path d="M818.353 973.935C819.134 974.716 819.134 975.983 818.353 976.764C817.572 977.545 816.305 977.545 815.524 976.764C814.743 975.983 814.743 974.716 815.524 973.935C816.305 973.154 817.572 973.154 818.353 973.935Z" fill="#CCCFD7"/>
<path d="M886.235 906.053C887.016 906.834 887.016 908.1 886.235 908.881C885.454 909.662 884.187 909.662 883.406 908.881C882.625 908.1 882.625 906.834 883.406 906.053C884.187 905.272 885.454 905.272 886.235 906.053Z" fill="#CCCFD7"/>
<path d="M954.117 838.171C954.898 838.952 954.898 840.218 954.117 840.999C953.336 841.78 952.07 841.78 951.289 840.999C950.508 840.218 950.508 838.952 951.289 838.171C952.07 837.39 953.336 837.39 954.117 838.171Z" fill="#CCCFD7"/>
<path d="M1022 770.288C1022.78 771.069 1022.78 772.335 1022 773.116C1021.22 773.897 1019.95 773.897 1019.17 773.116C1018.39 772.335 1018.39 771.069 1019.17 770.288C1019.95 769.507 1021.22 769.507 1022 770.288Z" fill="#CCCFD7"/>
<path d="M1089.88 702.406C1090.66 703.187 1090.66 704.453 1089.88 705.235C1089.1 706.016 1087.83 706.016 1087.05 705.235C1086.27 704.453 1086.27 703.187 1087.05 702.406C1087.83 701.625 1089.1 701.625 1089.88 702.406Z" fill="#CCCFD7"/>
<path d="M1157.76 634.524C1158.54 635.305 1158.54 636.572 1157.76 637.353C1156.98 638.134 1155.72 638.134 1154.94 637.353C1154.15 636.572 1154.15 635.305 1154.94 634.524C1155.72 633.743 1156.98 633.743 1157.76 634.524Z" fill="#CCCFD7"/>
<path d="M1225.65 566.641C1226.43 567.423 1226.43 568.689 1225.65 569.47C1224.87 570.251 1223.6 570.251 1222.82 569.47C1222.04 568.689 1222.04 567.423 1222.82 566.641C1223.6 565.86 1224.87 565.86 1225.65 566.641Z" fill="#CCCFD7"/>
<path d="M818.353 1109.7C819.134 1110.48 819.134 1111.75 818.353 1112.53C817.572 1113.31 816.305 1113.31 815.524 1112.53C814.743 1111.75 814.743 1110.48 815.524 1109.7C816.305 1108.92 817.572 1108.92 818.353 1109.7Z" fill="#CCCFD7"/>
<path d="M750.47 1177.58C751.251 1178.36 751.251 1179.63 750.47 1180.41C749.689 1181.19 748.423 1181.19 747.642 1180.41C746.861 1179.63 746.861 1178.36 747.642 1177.58C748.423 1176.8 749.689 1176.8 750.47 1177.58Z" fill="#CCCFD7"/>
<path d="M886.235 1041.82C887.016 1042.6 887.016 1043.86 886.235 1044.65C885.454 1045.43 884.187 1045.43 883.406 1044.65C882.625 1043.86 882.625 1042.6 883.406 1041.82C884.187 1041.04 885.454 1041.04 886.235 1041.82Z" fill="#CCCFD7"/>
<path d="M1089.88 838.171C1090.66 838.952 1090.66 840.218 1089.88 840.999C1089.1 841.78 1087.83 841.78 1087.05 840.999C1086.27 840.218 1086.27 838.952 1087.05 838.171C1087.83 837.39 1089.1 837.39 1089.88 838.171Z" fill="#CCCFD7"/>
<path d="M1157.76 770.288C1158.54 771.069 1158.54 772.335 1157.76 773.116C1156.98 773.897 1155.72 773.897 1154.94 773.116C1154.15 772.335 1154.15 771.069 1154.94 770.288C1155.72 769.507 1156.98 769.507 1157.76 770.288Z" fill="#CCCFD7"/>
<path d="M1225.65 702.406C1226.43 703.187 1226.43 704.453 1225.65 705.235C1224.87 706.016 1223.6 706.016 1222.82 705.235C1222.04 704.453 1222.04 703.187 1222.82 702.406C1223.6 701.625 1224.87 701.625 1225.65 702.406Z" fill="#CCCFD7"/>
</svg>
