<svg width="26" height="22" viewBox="0 0 26 22" fill="none" xmlns="http://www.w3.org/2000/svg">
<path d="M0 0V18C0 18.7292 0.177083 19.4062 0.53125 20.0312C0.885417 20.6354 1.36458 21.1146 1.96875 21.4688C2.59375 21.8229 3.27083 22 4 22H22C22.7292 22 23.3958 21.8229 24 21.4688C24.625 21.1146 25.1146 20.6354 25.4688 20.0312C25.8229 19.4062 26 18.7292 26 18V7H20V0H0ZM2 2H18V18C18 18.6875 18.1875 19.3542 18.5625 20H4C3.39583 20 2.90625 19.8229 2.53125 19.4688C2.17708 19.0938 2 18.6042 2 18V2ZM4 4V9H16V4H4ZM6 6H14V7H6V6ZM20 9H24V18C24 18.6042 23.8125 19.0938 23.4375 19.4688C23.0833 19.8229 22.6042 20 22 20C21.3958 20 20.9062 19.8229 20.5312 19.4688C20.1771 19.0938 20 18.6042 20 18V9ZM4 10V12H9V10H4ZM11 10V12H16V10H11ZM4 13V15H9V13H4ZM11 13V15H16V13H11ZM4 16V18H9V16H4ZM11 16V18H16V16H11Z" fill="white"/>
</svg>
